Group, Attr, IA, IB
GROUP1, 1, 0.113000000000000, 0.103000000000000
GROUP2, 45, 0.022000000000000, 0.074000000000000
GROUP2, 16, 0.005000000000000, 0.045000000000000
GROUP2, 73, 0.006000000000000, 0.087000000000000
GROUP2, 60, 0.006000000000000, 0.076000000000000
GROUP1, 4, 0.080000000000000, 0.100000000000000
GROUP1, 1, 0.067000000000000, 0.097000000000000
GROUP1, 1, 0.066000000000000, 0.098000000000000
GROUP2, 76, 0.008000000000000, 0.083000000000000
GROUP1, 4, 0.070000000000000, 0.102000000000000
GROUP1, 2, 0.079000000000000, 0.098000000000000
GROUP2, 72, 0.006000000000000, 0.081000000000000
GROUP2, 1, 0.005000000000000, 0.025000000000000
GROUP2, 50, 0.005000000000000, 0.076000000000000
GROUP2, 5, 0.006000000000000, 0.036000000000000
GROUP1, 2, 0.084000000000000, 0.110000000000000
GROUP1, 4, 0.073000000000000, 0.099000000000000
GROUP1, 1, 0.067000000000000, 0.101000000000000
GROUP1, 1, 0.073000000000000, 0.098000000000000
GROUP2, 11, 0.005000000000000, 0.040000000000000
GROUP2, 9, 0.005000000000000, 0.039000000000000
GROUP1, 3, 0.083000000000000, 0.099000000000000
GROUP2, 29, 0.008000000000000, 0.055000000000000
GROUP2, 17, 0.005000000000000, 0.045000000000000
GROUP1, 5, 0.079000000000000, 0.100000000000000
GROUP1, 3, 0.069000000000000, 0.098000000000000
GROUP1, 1, 0.068000000000000, 0.098000000000000
GROUP1, 4, 0.071000000000000, 0.098000000000000
GROUP2, 81, 0.006000000000000, 0.092000000000000
GROUP2, 79, 0.006000000000000, 0.087000000000000
GROUP1, 1, 0.069000000000000, 0.098000000000000
GROUP1, 2, 0.068000000000000, 0.097000000000000
GROUP1, 5, 0.071000000000000, 0.104000000000000
GROUP2, 57, 0.007000000000000, 0.073000000000000
GROUP2, 38, 0.009000000000000, 0.057000000000000
GROUP1, 1, 0.067000000000000, 0.096000000000000
GROUP2, 64, 0.006000000000000, 0.074000000000000
GROUP2, 54, 0.006000000000000, 0.066000000000000
GROUP2, 89, 0.006000000000000, 0.091000000000000
GROUP2, 18, 0.005000000000000, 0.044000000000000
GROUP2, 89, 0.006000000000000, 0.077000000000000
GROUP2, 3, 0.005000000000000, 0.044000000000000
GROUP2, 56, 0.006000000000000, 0.093000000000000
GROUP2, 6, 0.006000000000000, 0.046000000000000
GROUP1, 1, 0.075000000000000, 0.098000000000000
GROUP1, 2, 0.068000000000000, 0.098000000000000
GROUP2, 8, 0.006000000000000, 0.038000000000000
GROUP1, 1, 0.066000000000000, 0.096000000000000
GROUP1, 3, 0.072000000000000, 0.097000000000000
GROUP1, 2, 0.067000000000000, 0.097000000000000
GROUP1, 5, 0.070000000000000, 0.099000000000000
GROUP2, 88, 0.006000000000000, 0.091000000000000
GROUP1, 1, 0.066000000000000, 0.096000000000000
GROUP2, 46, 0.006000000000000, 0.058000000000000
GROUP1, 2, 0.067000000000000, 0.097000000000000
GROUP1, 5, 0.073000000000000, 0.102000000000000
GROUP1, 5, 0.071000000000000, 0.098000000000000
GROUP2, 50, 0.006000000000000, 0.044000000000000
GROUP2, 2, 0.006000000000000, 0.030000000000000
GROUP1, 1, 0.067000000000000, 0.098000000000000
GROUP1, 5, 0.078000000000000, 0.116000000000000
GROUP2, 25, 0.007000000000000, 0.050000000000000
GROUP2, 73, 0.006000000000000, 0.060000000000000
GROUP1, 5, 0.075000000000000, 0.101000000000000
GROUP1, 5, 0.070000000000000, 0.099000000000000
GROUP2, 95, 0.010000000000000, 0.097000000000000
GROUP2, 85, 0.006000000000000, 0.089000000000000
GROUP2, 67, 0.006000000000000, 0.073000000000000
GROUP2, 32, 0.006000000000000, 0.054000000000000
GROUP1, 1, 0.066000000000000, 0.096000000000000
GROUP2, 76, 0.006000000000000, 0.056000000000000
GROUP2, 72, 0.006000000000000, 0.054000000000000
GROUP1, 3, 0.069000000000000, 0.097000000000000
GROUP1, 3, 0.068000000000000, 0.098000000000000
GROUP1, 1, 0.066000000000000, 0.097000000000000
GROUP2, 19, 0.006000000000000, 0.043000000000000
GROUP2, 56, 0.005000000000000, 0.044000000000000
GROUP1, 5, 0.072000000000000, 0.098000000000000
GROUP2, 61, 0.005000000000000, 0.068000000000000
GROUP2, 1, 0.006000000000000, 0.009000000000000
GROUP2, 69, 0.006000000000000, 0.072000000000000
GROUP1, 1, 0.065000000000000, 0.097000000000000
GROUP1, 1, 0.068000000000000, 0.099000000000000
GROUP1, 5, 0.072000000000000, 0.098000000000000
GROUP2, 92, 0.006000000000000, 0.096000000000000
GROUP1, 2, 0.085000000000000, 0.117000000000000
GROUP2, 3, 0.006000000000000, 0.013000000000000
GROUP1, 5, 0.082000000000000, 0.098000000000000
GROUP1, 2, 0.069000000000000, 0.098000000000000
GROUP2, 85, 0.006000000000000, 0.062000000000000
GROUP1, 4, 0.072000000000000, 0.097000000000000
GROUP2, 43, 0.005000000000000, 0.060000000000000
GROUP1, 1, 0.066000000000000, 0.098000000000000
GROUP2, 2, 0.006000000000000, 0.009000000000000
GROUP2, 82, 0.006000000000000, 0.083000000000000
GROUP2, 71, 0.006000000000000, 0.077000000000000
GROUP2, 36, 0.006000000000000, 0.053000000000000
GROUP1, 3, 0.071000000000000, 0.097000000000000
GROUP2, 22, 0.006000000000000, 0.045000000000000
GROUP1, 1, 0.072000000000000, 0.097000000000000
GROUP2, 71, 0.006000000000000, 0.053000000000000
GROUP1, 3, 0.069000000000000, 0.096000000000000
GROUP1, 5, 0.072000000000000, 0.098000000000000
GROUP2, 93, 0.006000000000000, 0.091000000000000
GROUP1, 3, 0.072000000000000, 0.102000000000000
GROUP1, 3, 0.070000000000000, 0.099000000000000
GROUP2, 26, 0.006000000000000, 0.047000000000000
GROUP2, 44, 0.006000000000000, 0.056000000000000
GROUP2, 7, 0.006000000000000, 0.035000000000000
GROUP2, 27, 0.005000000000000, 0.046000000000000
GROUP2, 17, 0.006000000000000, 0.019000000000000
GROUP2, 35, 0.006000000000000, 0.054000000000000
GROUP2, 94, 0.006000000000000, 0.092000000000000
GROUP2, 90, 0.006000000000000, 0.092000000000000
GROUP1, 2, 0.071000000000000, 0.098000000000000
GROUP1, 3, 0.069000000000000, 0.098000000000000
GROUP2, 20, 0.008000000000000, 0.043000000000000
GROUP1, 3, 0.068000000000000, 0.097000000000000
GROUP2, 11, 0.006000000000000, 0.014000000000000
GROUP2, 10, 0.006000000000000, 0.034000000000000
GROUP2, 10, 0.006000000000000, 0.014000000000000
GROUP2, 43, 0.006000000000000, 0.037000000000000
GROUP1, 1, 0.068000000000000, 0.100000000000000
GROUP1, 1, 0.069000000000000, 0.099000000000000
GROUP1, 3, 0.069000000000000, 0.098000000000000
GROUP1, 3, 0.069000000000000, 0.097000000000000
GROUP1, 5, 0.077000000000000, 0.101000000000000
GROUP2, 3, 0.006000000000000, 0.010000000000000
GROUP1, 3, 0.068000000000000, 0.097000000000000
GROUP2, 43, 0.005000000000000, 0.035000000000000
GROUP2, 91, 0.005000000000000, 0.095000000000000
GROUP2, 5, 0.005000000000000, 0.011000000000000
GROUP2, 45, 0.005000000000000, 0.037000000000000
GROUP2, 53, 0.005000000000000, 0.064000000000000
GROUP1, 3, 0.068000000000000, 0.098000000000000
GROUP2, 54, 0.005000000000000, 0.042000000000000
GROUP2, 38, 0.008000000000000, 0.035000000000000
GROUP1, 2, 0.069000000000000, 0.098000000000000
GROUP1, 3, 0.069000000000000, 0.100000000000000
GROUP1, 5, 0.074000000000000, 0.099000000000000
GROUP1, 5, 0.070000000000000, 0.097000000000000
GROUP2, 32, 0.005000000000000, 0.028000000000000
GROUP2, 12, 0.006000000000000, 0.038000000000000
GROUP1, 1, 0.073000000000000, 0.098000000000000
GROUP1, 2, 0.067000000000000, 0.097000000000000
GROUP1, 2, 0.067000000000000, 0.097000000000000
GROUP2, 84, 0.006000000000000, 0.081000000000000
GROUP2, 60, 0.005000000000000, 0.047000000000000
GROUP2, 94, 0.006000000000000, 0.068000000000000
GROUP2, 3, 0.006000000000000, 0.009000000000000
GROUP1, 1, 0.072000000000000, 0.096000000000000
GROUP1, 1, 0.066000000000000, 0.097000000000000
GROUP2, 84, 0.006000000000000, 0.065000000000000
GROUP2, 64, 0.005000000000000, 0.049000000000000
GROUP2, 23, 0.005000000000000, 0.041000000000000
GROUP2, 40, 0.006000000000000, 0.054000000000000
GROUP1, 5, 0.070000000000000, 0.099000000000000
GROUP2, 48, 0.006000000000000, 0.059000000000000
GROUP1, 1, 0.068000000000000, 0.096000000000000
GROUP2, 22, 0.005000000000000, 0.022000000000000
GROUP2, 16, 0.010000000000000, 0.019000000000000
GROUP1, 5, 0.070000000000000, 0.099000000000000
GROUP1, 4, 0.070000000000000, 0.099000000000000
GROUP1, 3, 0.071000000000000, 0.097000000000000
GROUP2, 49, 0.006000000000000, 0.060000000000000
GROUP2, 17, 0.006000000000000, 0.020000000000000
GROUP1, 5, 0.070000000000000, 0.098000000000000
GROUP2, 14, 0.006000000000000, 0.036000000000000
GROUP2, 23, 0.008000000000000, 0.027000000000000
GROUP2, 92, 0.006000000000000, 0.065000000000000
GROUP2, 38, 0.006000000000000, 0.031000000000000
GROUP1, 5, 0.070000000000000, 0.098000000000000
GROUP1, 1, 0.065000000000000, 0.096000000000000
GROUP1, 1, 0.066000000000000, 0.097000000000000
GROUP1, 1, 0.066000000000000, 0.097000000000000
GROUP2, 10, 0.005000000000000, 0.015000000000000
GROUP2, 72, 0.005000000000000, 0.055000000000000
GROUP2, 53, 0.006000000000000, 0.042000000000000
GROUP1, 4, 0.073000000000000, 0.100000000000000
GROUP1, 4, 0.069000000000000, 0.097000000000000
GROUP2, 87, 0.006000000000000, 0.082000000000000
GROUP1, 5, 0.070000000000000, 0.102000000000000
GROUP2, 43, 0.006000000000000, 0.035000000000000
GROUP1, 2, 0.067000000000000, 0.097000000000000
GROUP1, 5, 0.072000000000000, 0.097000000000000
GROUP1, 5, 0.074000000000000, 0.099000000000000
GROUP1, 2, 0.068000000000000, 0.096000000000000
GROUP1, 3, 0.070000000000000, 0.097000000000000
GROUP2, 68, 0.005000000000000, 0.069000000000000
GROUP2, 85, 0.006000000000000, 0.064000000000000
GROUP1, 2, 0.069000000000000, 0.097000000000000
GROUP1, 5, 0.070000000000000, 0.098000000000000
GROUP1, 3, 0.067000000000000, 0.103000000000000
GROUP1, 3, 0.068000000000000, 0.097000000000000
GROUP1, 3, 0.072000000000000, 0.099000000000000
GROUP2, 58, 0.006000000000000, 0.062000000000000
GROUP2, 27, 0.005000000000000, 0.027000000000000
GROUP2, 25, 0.005000000000000, 0.025000000000000
GROUP1, 1, 0.068000000000000, 0.097000000000000
GROUP1, 2, 0.067000000000000, 0.098000000000000
GROUP1, 2, 0.068000000000000, 0.099000000000000
GROUP2, 32, 0.005000000000000, 0.032000000000000
GROUP1, 1, 0.077000000000000, 0.120000000000000
GROUP1, 5, 0.086000000000000, 0.113000000000000
GROUP2, 39, 0.005000000000000, 0.058000000000000
GROUP1, 2, 0.068000000000000, 0.099000000000000
GROUP1, 4, 0.069000000000000, 0.099000000000000
GROUP1, 1, 0.066000000000000, 0.098000000000000
GROUP1, 2, 0.067000000000000, 0.098000000000000
GROUP1, 1, 0.066000000000000, 0.098000000000000
GROUP1, 5, 0.072000000000000, 0.099000000000000
GROUP1, 3, 0.068000000000000, 0.097000000000000
GROUP2, 15, 0.006000000000000, 0.034000000000000
GROUP2, 39, 0.006000000000000, 0.034000000000000
GROUP2, 58, 0.006000000000000, 0.045000000000000
GROUP2, 1, 0.006000000000000, 0.008000000000000
GROUP1, 3, 0.069000000000000, 0.101000000000000
GROUP1, 1, 0.066000000000000, 0.097000000000000
GROUP1, 4, 0.069000000000000, 0.098000000000000
GROUP2, 71, 0.005000000000000, 0.054000000000000
GROUP2, 94, 0.006000000000000, 0.067000000000000
GROUP2, 59, 0.006000000000000, 0.063000000000000
GROUP2, 41, 0.006000000000000, 0.054000000000000
GROUP2, 55, 0.006000000000000, 0.067000000000000
GROUP1, 1, 0.066000000000000, 0.096000000000000
GROUP1, 3, 0.068000000000000, 0.098000000000000
GROUP1, 5, 0.070000000000000, 0.098000000000000
GROUP1, 2, 0.066000000000000, 0.097000000000000
GROUP1, 4, 0.069000000000000, 0.099000000000000
GROUP1, 1, 0.066000000000000, 0.096000000000000
GROUP2, 75, 0.006000000000000, 0.073000000000000
GROUP1, 5, 0.070000000000000, 0.097000000000000
GROUP1, 2, 0.068000000000000, 0.097000000000000
GROUP1, 2, 0.068000000000000, 0.096000000000000
GROUP1, 4, 0.069000000000000, 0.097000000000000
GROUP2, 40, 0.006000000000000, 0.034000000000000
GROUP1, 3, 0.069000000000000, 0.097000000000000
GROUP1, 4, 0.070000000000000, 0.098000000000000
GROUP2, 59, 0.006000000000000, 0.045000000000000
GROUP2, 87, 0.005000000000000, 0.064000000000000
GROUP2, 86, 0.006000000000000, 0.084000000000000
GROUP2, 25, 0.005000000000000, 0.025000000000000
GROUP1, 5, 0.070000000000000, 0.098000000000000
GROUP1, 2, 0.067000000000000, 0.097000000000000
GROUP2, 35, 0.010000000000000, 0.032000000000000
GROUP2, 82, 0.006000000000000, 0.062000000000000
GROUP2, 42, 0.006000000000000, 0.054000000000000
GROUP2, 57, 0.006000000000000, 0.044000000000000
GROUP2, 4, 0.006000000000000, 0.028000000000000
GROUP1, 1, 0.068000000000000, 0.096000000000000
GROUP1, 3, 0.071000000000000, 0.097000000000000
GROUP1, 2, 0.067000000000000, 0.097000000000000
GROUP2, 61, 0.006000000000000, 0.046000000000000
GROUP2, 47, 0.006000000000000, 0.058000000000000
GROUP2, 86, 0.008000000000000, 0.063000000000000
GROUP1, 2, 0.070000000000000, 0.099000000000000
GROUP1, 3, 0.068000000000000, 0.097000000000000
GROUP1, 4, 0.069000000000000, 0.097000000000000
GROUP2, 31, 0.006000000000000, 0.048000000000000
GROUP2, 23, 0.005000000000000, 0.024000000000000
GROUP2, 40, 0.006000000000000, 0.033000000000000
GROUP1, 2, 0.068000000000000, 0.096000000000000
GROUP2, 3, 0.006000000000000, 0.009000000000000
GROUP1, 5, 0.070000000000000, 0.097000000000000
GROUP2, 78, 0.006000000000000, 0.074000000000000
GROUP1, 5, 0.072000000000000, 0.099000000000000
GROUP2, 15, 0.005000000000000, 0.017000000000000
GROUP1, 2, 0.070000000000000, 0.096000000000000
GROUP1, 2, 0.066000000000000, 0.096000000000000
GROUP2, 72, 0.006000000000000, 0.053000000000000
GROUP2, 13, 0.006000000000000, 0.035000000000000
GROUP2, 25, 0.006000000000000, 0.023000000000000
GROUP1, 4, 0.069000000000000, 0.103000000000000
GROUP1, 5, 0.070000000000000, 0.098000000000000
GROUP1, 5, 0.070000000000000, 0.099000000000000
GROUP2, 71, 0.006000000000000, 0.053000000000000
GROUP2, 8, 0.006000000000000, 0.013000000000000
GROUP2, 22, 0.005000000000000, 0.022000000000000
GROUP1, 1, 0.066000000000000, 0.096000000000000
GROUP2, 80, 0.006000000000000, 0.081000000000000
GROUP2, 7, 0.005000000000000, 0.012000000000000
GROUP2, 45, 0.005000000000000, 0.037000000000000
GROUP2, 93, 0.005000000000000, 0.068000000000000
GROUP2, 85, 0.006000000000000, 0.061000000000000
GROUP2, 80, 0.006000000000000, 0.058000000000000
GROUP2, 24, 0.006000000000000, 0.038000000000000
GROUP2, 59, 0.006000000000000, 0.044000000000000
GROUP2, 32, 0.005000000000000, 0.028000000000000
GROUP1, 5, 0.070000000000000, 0.097000000000000
GROUP1, 5, 0.071000000000000, 0.097000000000000
GROUP1, 4, 0.069000000000000, 0.097000000000000
GROUP1, 2, 0.066000000000000, 0.096000000000000
GROUP2, 89, 0.005000000000000, 0.064000000000000
GROUP2, 65, 0.005000000000000, 0.069000000000000
GROUP1, 2, 0.066000000000000, 0.096000000000000
GROUP1, 5, 0.070000000000000, 0.097000000000000
GROUP2, 91, 0.005000000000000, 0.067000000000000
GROUP1, 5, 0.070000000000000, 0.098000000000000
GROUP2, 82, 0.008000000000000, 0.067000000000000
GROUP1, 2, 0.068000000000000, 0.096000000000000
GROUP2, 66, 0.006000000000000, 0.067000000000000
GROUP2, 92, 0.005000000000000, 0.066000000000000
GROUP1, 2, 0.067000000000000, 0.097000000000000
GROUP2, 17, 0.005000000000000, 0.019000000000000
GROUP2, 22, 0.005000000000000, 0.022000000000000
GROUP2, 54, 0.006000000000000, 0.042000000000000
GROUP2, 12, 0.006000000000000, 0.020000000000000
GROUP2, 70, 0.007000000000000, 0.074000000000000
GROUP1, 1, 0.069000000000000, 0.098000000000000
GROUP2, 34, 0.006000000000000, 0.045000000000000
GROUP1, 3, 0.069000000000000, 0.097000000000000
GROUP1, 5, 0.070000000000000, 0.097000000000000
GROUP2, 79, 0.005000000000000, 0.057000000000000
GROUP1, 2, 0.067000000000000, 0.097000000000000
GROUP1, 4, 0.069000000000000, 0.097000000000000
GROUP1, 5, 0.073000000000000, 0.101000000000000
GROUP1, 2, 0.067000000000000, 0.097000000000000
GROUP1, 5, 0.071000000000000, 0.097000000000000
GROUP1, 3, 0.070000000000000, 0.097000000000000
GROUP2, 15, 0.006000000000000, 0.018000000000000
GROUP2, 8, 0.006000000000000, 0.014000000000000
GROUP2, 6, 0.005000000000000, 0.012000000000000
GROUP2, 78, 0.006000000000000, 0.056000000000000
GROUP2, 48, 0.006000000000000, 0.037000000000000
GROUP1, 3, 0.068000000000000, 0.096000000000000
GROUP1, 2, 0.067000000000000, 0.097000000000000
GROUP1, 1, 0.066000000000000, 0.096000000000000
GROUP2, 36, 0.006000000000000, 0.030000000000000
GROUP1, 4, 0.068000000000000, 0.097000000000000
GROUP1, 3, 0.069000000000000, 0.097000000000000
GROUP1, 5, 0.069000000000000, 0.097000000000000
GROUP2, 43, 0.006000000000000, 0.034000000000000
GROUP1, 1, 0.065000000000000, 0.097000000000000
GROUP1, 5, 0.070000000000000, 0.098000000000000
GROUP1, 4, 0.069000000000000, 0.097000000000000
GROUP1, 3, 0.067000000000000, 0.097000000000000
GROUP2, 36, 0.005000000000000, 0.031000000000000
GROUP2, 5, 0.006000000000000, 0.010000000000000
GROUP2, 40, 0.006000000000000, 0.032000000000000
GROUP1, 2, 0.067000000000000, 0.096000000000000
GROUP1, 1, 0.066000000000000, 0.096000000000000
GROUP1, 1, 0.066000000000000, 0.100000000000000
GROUP1, 1, 0.082000000000000, 0.127000000000000
GROUP2, 51, 0.006000000000000, 0.061000000000000
GROUP2, 16, 0.005000000000000, 0.018000000000000
GROUP2, 78, 0.005000000000000, 0.058000000000000
GROUP2, 46, 0.005000000000000, 0.037000000000000
GROUP2, 26, 0.005000000000000, 0.025000000000000
GROUP2, 5, 0.005000000000000, 0.011000000000000
GROUP2, 41, 0.006000000000000, 0.036000000000000
GROUP1, 2, 0.089000000000000, 0.126000000000000
GROUP2, 35, 0.007000000000000, 0.037000000000000
GROUP1, 4, 0.086000000000000, 0.098000000000000
GROUP2, 32, 0.005000000000000, 0.030000000000000
GROUP2, 62, 0.010000000000000, 0.068000000000000
GROUP1, 3, 0.068000000000000, 0.104000000000000
GROUP1, 4, 0.085000000000000, 0.112000000000000
GROUP2, 39, 0.005000000000000, 0.033000000000000
GROUP2, 17, 0.006000000000000, 0.018000000000000
GROUP1, 5, 0.070000000000000, 0.098000000000000
GROUP1, 1, 0.066000000000000, 0.098000000000000
GROUP2, 66, 0.005000000000000, 0.050000000000000
GROUP2, 17, 0.006000000000000, 0.018000000000000
GROUP2, 51, 0.005000000000000, 0.041000000000000
GROUP2, 93, 0.005000000000000, 0.067000000000000
GROUP2, 57, 0.006000000000000, 0.044000000000000
GROUP2, 47, 0.006000000000000, 0.037000000000000
GROUP2, 37, 0.005000000000000, 0.049000000000000
GROUP1, 2, 0.067000000000000, 0.097000000000000
GROUP1, 5, 0.072000000000000, 0.097000000000000
GROUP2, 73, 0.006000000000000, 0.054000000000000
GROUP2, 93, 0.006000000000000, 0.067000000000000
GROUP2, 1, 0.005000000000000, 0.008000000000000
GROUP2, 30, 0.006000000000000, 0.044000000000000
GROUP2, 85, 0.006000000000000, 0.062000000000000
GROUP2, 89, 0.006000000000000, 0.064000000000000
GROUP1, 3, 0.070000000000000, 0.098000000000000
GROUP1, 1, 0.066000000000000, 0.096000000000000
GROUP1, 3, 0.075000000000000, 0.098000000000000
GROUP1, 4, 0.070000000000000, 0.110000000000000
GROUP2, 38, 0.007000000000000, 0.040000000000000
GROUP2, 44, 0.007000000000000, 0.046000000000000
GROUP2, 32, 0.006000000000000, 0.039000000000000
GROUP1, 2, 0.086000000000000, 0.113000000000000
GROUP1, 4, 0.071000000000000, 0.099000000000000
GROUP2, 69, 0.005000000000000, 0.052000000000000
GROUP1, 3, 0.069000000000000, 0.098000000000000
GROUP2, 47, 0.006000000000000, 0.037000000000000
GROUP1, 3, 0.076000000000000, 0.129000000000000
GROUP1, 5, 0.089000000000000, 0.120000000000000
GROUP2, 42, 0.006000000000000, 0.034000000000000
GROUP1, 5, 0.072000000000000, 0.103000000000000
GROUP1, 2, 0.087000000000000, 0.126000000000000
GROUP2, 7, 0.006000000000000, 0.017000000000000
GROUP1, 3, 0.076000000000000, 0.098000000000000
GROUP1, 1, 0.067000000000000, 0.098000000000000
GROUP2, 57, 0.006000000000000, 0.044000000000000
GROUP1, 3, 0.075000000000000, 0.118000000000000
GROUP2, 14, 0.007000000000000, 0.023000000000000
GROUP1, 5, 0.077000000000000, 0.102000000000000
GROUP1, 2, 0.067000000000000, 0.096000000000000
GROUP1, 1, 0.068000000000000, 0.096000000000000
GROUP1, 3, 0.072000000000000, 0.097000000000000
GROUP2, 92, 0.006000000000000, 0.066000000000000
GROUP2, 35, 0.006000000000000, 0.029000000000000
GROUP1, 4, 0.069000000000000, 0.098000000000000
GROUP1, 4, 0.069000000000000, 0.100000000000000
GROUP2, 58, 0.008000000000000, 0.049000000000000
GROUP1, 3, 0.071000000000000, 0.096000000000000
GROUP1, 1, 0.065000000000000, 0.097000000000000
GROUP1, 1, 0.066000000000000, 0.113000000000000
GROUP1, 2, 0.080000000000000, 0.116000000000000
GROUP2, 32, 0.006000000000000, 0.028000000000000
GROUP1, 5, 0.071000000000000, 0.099000000000000
GROUP1, 1, 0.075000000000000, 0.120000000000000
GROUP2, 19, 0.006000000000000, 0.024000000000000
GROUP2, 6, 0.006000000000000, 0.014000000000000
GROUP1, 3, 0.071000000000000, 0.099000000000000
GROUP2, 21, 0.005000000000000, 0.041000000000000
GROUP2, 31, 0.005000000000000, 0.028000000000000
GROUP2, 17, 0.006000000000000, 0.020000000000000
GROUP2, 26, 0.006000000000000, 0.026000000000000
GROUP2, 68, 0.006000000000000, 0.053000000000000
GROUP1, 1, 0.070000000000000, 0.098000000000000
GROUP2, 72, 0.006000000000000, 0.054000000000000
GROUP1, 4, 0.069000000000000, 0.099000000000000
GROUP1, 4, 0.070000000000000, 0.098000000000000
GROUP2, 33, 0.006000000000000, 0.044000000000000
GROUP1, 1, 0.080000000000000, 0.124000000000000
GROUP1, 4, 0.093000000000000, 0.100000000000000
GROUP1, 5, 0.070000000000000, 0.121000000000000
GROUP1, 1, 0.084000000000000, 0.108000000000000
GROUP2, 35, 0.005000000000000, 0.031000000000000
GROUP2, 11, 0.006000000000000, 0.014000000000000
GROUP2, 63, 0.006000000000000, 0.069000000000000
GROUP1, 3, 0.069000000000000, 0.098000000000000
GROUP2, 16, 0.005000000000000, 0.018000000000000
GROUP2, 46, 0.006000000000000, 0.037000000000000
GROUP1, 4, 0.071000000000000, 0.099000000000000
GROUP1, 3, 0.069000000000000, 0.099000000000000
GROUP1, 2, 0.068000000000000, 0.097000000000000
GROUP2, 77, 0.007000000000000, 0.077000000000000
GROUP2, 7, 0.005000000000000, 0.013000000000000
GROUP1, 2, 0.068000000000000, 0.097000000000000
GROUP1, 3, 0.069000000000000, 0.098000000000000
GROUP2, 58, 0.005000000000000, 0.047000000000000
GROUP2, 25, 0.006000000000000, 0.024000000000000
GROUP2, 27, 0.006000000000000, 0.026000000000000
GROUP1, 4, 0.072000000000000, 0.098000000000000
GROUP2, 60, 0.005000000000000, 0.047000000000000
GROUP1, 5, 0.073000000000000, 0.098000000000000
GROUP2, 34, 0.006000000000000, 0.030000000000000
GROUP1, 4, 0.070000000000000, 0.102000000000000
GROUP2, 41, 0.006000000000000, 0.034000000000000
GROUP1, 5, 0.071000000000000, 0.098000000000000
GROUP2, 64, 0.006000000000000, 0.049000000000000
GROUP2, 22, 0.006000000000000, 0.022000000000000
GROUP2, 66, 0.005000000000000, 0.051000000000000
GROUP2, 28, 0.007000000000000, 0.048000000000000
GROUP2, 76, 0.006000000000000, 0.056000000000000
GROUP2, 1, 0.006000000000000, 0.008000000000000
GROUP1, 5, 0.071000000000000, 0.098000000000000
GROUP2, 84, 0.005000000000000, 0.062000000000000
GROUP1, 3, 0.070000000000000, 0.097000000000000
GROUP2, 91, 0.006000000000000, 0.067000000000000
GROUP2, 12, 0.006000000000000, 0.016000000000000
GROUP1, 4, 0.069000000000000, 0.098000000000000
GROUP1, 5, 0.071000000000000, 0.098000000000000
GROUP2, 27, 0.006000000000000, 0.025000000000000
GROUP2, 95, 0.006000000000000, 0.071000000000000
GROUP1, 5, 0.072000000000000, 0.098000000000000
GROUP2, 82, 0.006000000000000, 0.063000000000000
GROUP1, 2, 0.067000000000000, 0.103000000000000
GROUP2, 15, 0.006000000000000, 0.017000000000000
GROUP2, 8, 0.005000000000000, 0.014000000000000
GROUP2, 23, 0.006000000000000, 0.022000000000000
GROUP2, 10, 0.006000000000000, 0.014000000000000
GROUP2, 3, 0.006000000000000, 0.010000000000000
GROUP1, 1, 0.067000000000000, 0.099000000000000
GROUP1, 1, 0.067000000000000, 0.097000000000000
GROUP1, 4, 0.073000000000000, 0.098000000000000
GROUP2, 94, 0.006000000000000, 0.068000000000000
GROUP1, 5, 0.070000000000000, 0.097000000000000
GROUP1, 3, 0.067000000000000, 0.097000000000000
GROUP2, 22, 0.005000000000000, 0.022000000000000
GROUP2, 24, 0.005000000000000, 0.023000000000000
GROUP2, 11, 0.005000000000000, 0.015000000000000
GROUP2, 25, 0.006000000000000, 0.025000000000000
GROUP2, 29, 0.005000000000000, 0.026000000000000
GROUP1, 1, 0.065000000000000, 0.096000000000000
GROUP2, 44, 0.005000000000000, 0.036000000000000
GROUP2, 94, 0.006000000000000, 0.067000000000000
GROUP1, 5, 0.070000000000000, 0.097000000000000
GROUP2, 30, 0.005000000000000, 0.027000000000000
GROUP2, 61, 0.005000000000000, 0.046000000000000
GROUP2, 87, 0.005000000000000, 0.063000000000000
GROUP1, 4, 0.069000000000000, 0.097000000000000
GROUP2, 46, 0.006000000000000, 0.036000000000000
GROUP1, 4, 0.069000000000000, 0.098000000000000
GROUP1, 4, 0.069000000000000, 0.097000000000000
GROUP1, 5, 0.070000000000000, 0.097000000000000
GROUP2, 93, 0.005000000000000, 0.067000000000000
GROUP1, 3, 0.068000000000000, 0.098000000000000
GROUP1, 1, 0.066000000000000, 0.096000000000000
GROUP1, 2, 0.070000000000000, 0.096000000000000
GROUP2, 16, 0.006000000000000, 0.019000000000000
GROUP2, 11, 0.006000000000000, 0.015000000000000
GROUP1, 5, 0.073000000000000, 0.097000000000000
GROUP2, 1, 0.005000000000000, 0.008000000000000
GROUP1, 3, 0.068000000000000, 0.096000000000000
GROUP2, 89, 0.005000000000000, 0.064000000000000
GROUP2, 21, 0.005000000000000, 0.022000000000000
GROUP2, 69, 0.005000000000000, 0.052000000000000
GROUP2, 35, 0.008000000000000, 0.032000000000000
GROUP2, 68, 0.006000000000000, 0.051000000000000
GROUP2, 23, 0.006000000000000, 0.023000000000000
GROUP1, 4, 0.075000000000000, 0.097000000000000
GROUP2, 71, 0.005000000000000, 0.054000000000000
GROUP1, 3, 0.069000000000000, 0.098000000000000
GROUP2, 45, 0.006000000000000, 0.036000000000000
GROUP1, 4, 0.069000000000000, 0.097000000000000
GROUP1, 5, 0.070000000000000, 0.098000000000000
GROUP1, 4, 0.070000000000000, 0.098000000000000
GROUP2, 32, 0.005000000000000, 0.029000000000000
GROUP1, 4, 0.070000000000000, 0.097000000000000
GROUP1, 3, 0.069000000000000, 0.097000000000000
GROUP2, 28, 0.005000000000000, 0.026000000000000
GROUP1, 4, 0.072000000000000, 0.097000000000000
GROUP1, 3, 0.068000000000000, 0.097000000000000
GROUP1, 3, 0.067000000000000, 0.097000000000000
GROUP2, 54, 0.005000000000000, 0.042000000000000
GROUP2, 67, 0.006000000000000, 0.050000000000000
GROUP1, 4, 0.069000000000000, 0.097000000000000
GROUP2, 49, 0.005000000000000, 0.039000000000000
GROUP1, 1, 0.065000000000000, 0.097000000000000
GROUP1, 4, 0.070000000000000, 0.099000000000000
GROUP2, 93, 0.006000000000000, 0.067000000000000
GROUP2, 12, 0.006000000000000, 0.015000000000000
GROUP1, 2, 0.067000000000000, 0.096000000000000
GROUP1, 2, 0.066000000000000, 0.096000000000000
GROUP1, 5, 0.070000000000000, 0.097000000000000
GROUP2, 42, 0.005000000000000, 0.035000000000000
GROUP2, 85, 0.006000000000000, 0.061000000000000
GROUP1, 3, 0.067000000000000, 0.098000000000000
GROUP1, 1, 0.069000000000000, 0.096000000000000
GROUP1, 4, 0.069000000000000, 0.097000000000000
GROUP2, 79, 0.005000000000000, 0.058000000000000
GROUP1, 5, 0.071000000000000, 0.098000000000000
GROUP1, 3, 0.069000000000000, 0.097000000000000
GROUP2, 28, 0.006000000000000, 0.026000000000000
GROUP2, 92, 0.005000000000000, 0.066000000000000
GROUP2, 36, 0.005000000000000, 0.031000000000000
GROUP1, 4, 0.070000000000000, 0.099000000000000
GROUP2, 69, 0.006000000000000, 0.052000000000000
GROUP2, 77, 0.005000000000000, 0.058000000000000
GROUP2, 89, 0.006000000000000, 0.063000000000000
GROUP2, 82, 0.006000000000000, 0.061000000000000
GROUP1, 4, 0.071000000000000, 0.098000000000000
GROUP2, 34, 0.006000000000000, 0.030000000000000
GROUP1, 1, 0.070000000000000, 0.096000000000000
GROUP1, 2, 0.066000000000000, 0.096000000000000
GROUP1, 4, 0.069000000000000, 0.098000000000000
GROUP1, 2, 0.070000000000000, 0.097000000000000
GROUP2, 6, 0.006000000000000, 0.011000000000000
GROUP2, 11, 0.006000000000000, 0.015000000000000
GROUP2, 14, 0.006000000000000, 0.017000000000000
GROUP1, 4, 0.070000000000000, 0.097000000000000
GROUP2, 23, 0.006000000000000, 0.022000000000000
GROUP1, 1, 0.070000000000000, 0.097000000000000
GROUP1, 3, 0.069000000000000, 0.096000000000000
GROUP1, 3, 0.077000000000000, 0.099000000000000
GROUP2, 83, 0.006000000000000, 0.077000000000000
GROUP1, 4, 0.072000000000000, 0.097000000000000
GROUP1, 4, 0.072000000000000, 0.097000000000000
GROUP1, 1, 0.074000000000000, 0.096000000000000
GROUP2, 76, 0.006000000000000, 0.056000000000000
GROUP1, 1, 0.066000000000000, 0.096000000000000
GROUP2, 5, 0.005000000000000, 0.011000000000000
GROUP2, 59, 0.006000000000000, 0.046000000000000
GROUP2, 73, 0.006000000000000, 0.055000000000000
GROUP2, 69, 0.006000000000000, 0.052000000000000
GROUP1, 3, 0.069000000000000, 0.100000000000000
GROUP2, 74, 0.005000000000000, 0.071000000000000
GROUP2, 92, 0.005000000000000, 0.067000000000000
GROUP2, 89, 0.006000000000000, 0.064000000000000
GROUP1, 2, 0.068000000000000, 0.096000000000000
GROUP2, 30, 0.006000000000000, 0.027000000000000
GROUP2, 77, 0.006000000000000, 0.057000000000000
GROUP2, 21, 0.006000000000000, 0.022000000000000
GROUP2, 73, 0.006000000000000, 0.055000000000000
GROUP1, 2, 0.067000000000000, 0.096000000000000
GROUP1, 4, 0.071000000000000, 0.097000000000000
GROUP1, 3, 0.070000000000000, 0.097000000000000
GROUP2, 40, 0.006000000000000, 0.034000000000000
GROUP2, 42, 0.006000000000000, 0.036000000000000
GROUP2, 6, 0.006000000000000, 0.012000000000000
GROUP1, 2, 0.071000000000000, 0.099000000000000
GROUP1, 4, 0.069000000000000, 0.097000000000000
GROUP1, 4, 0.071000000000000, 0.097000000000000
GROUP1, 3, 0.068000000000000, 0.097000000000000
GROUP2, 28, 0.006000000000000, 0.025000000000000
GROUP2, 26, 0.006000000000000, 0.026000000000000
GROUP2, 73, 0.007000000000000, 0.054000000000000
GROUP2, 51, 0.006000000000000, 0.040000000000000
GROUP2, 36, 0.006000000000000, 0.032000000000000
GROUP1, 4, 0.069000000000000, 0.097000000000000
GROUP2, 74, 0.005000000000000, 0.055000000000000
GROUP2, 27, 0.006000000000000, 0.025000000000000
GROUP1, 1, 0.067000000000000, 0.096000000000000
GROUP1, 4, 0.069000000000000, 0.097000000000000
GROUP1, 4, 0.069000000000000, 0.097000000000000
GROUP2, 14, 0.006000000000000, 0.017000000000000
GROUP1, 4, 0.070000000000000, 0.098000000000000
GROUP2, 57, 0.005000000000000, 0.044000000000000
GROUP1, 3, 0.068000000000000, 0.097000000000000
GROUP1, 5, 0.069000000000000, 0.101000000000000
GROUP2, 67, 0.005000000000000, 0.053000000000000
GROUP1, 5, 0.070000000000000, 0.098000000000000
GROUP1, 4, 0.069000000000000, 0.097000000000000
GROUP1, 2, 0.066000000000000, 0.098000000000000
GROUP2, 80, 0.006000000000000, 0.058000000000000
GROUP1, 4, 0.069000000000000, 0.097000000000000
GROUP2, 49, 0.006000000000000, 0.041000000000000
GROUP1, 2, 0.066000000000000, 0.096000000000000
GROUP2, 11, 0.005000000000000, 0.015000000000000
GROUP2, 47, 0.005000000000000, 0.038000000000000
GROUP1, 4, 0.069000000000000, 0.097000000000000
GROUP2, 7, 0.006000000000000, 0.012000000000000
GROUP1, 3, 0.068000000000000, 0.097000000000000
GROUP1, 1, 0.066000000000000, 0.098000000000000
GROUP1, 3, 0.068000000000000, 0.097000000000000
GROUP2, 24, 0.005000000000000, 0.023000000000000
GROUP1, 3, 0.068000000000000, 0.097000000000000
GROUP1, 3, 0.068000000000000, 0.097000000000000
GROUP2, 43, 0.006000000000000, 0.035000000000000
GROUP2, 45, 0.006000000000000, 0.036000000000000
GROUP2, 4, 0.005000000000000, 0.010000000000000
GROUP1, 2, 0.066000000000000, 0.097000000000000
GROUP2, 19, 0.006000000000000, 0.019000000000000
GROUP2, 60, 0.005000000000000, 0.046000000000000
GROUP2, 49, 0.005000000000000, 0.039000000000000
GROUP1, 5, 0.072000000000000, 0.097000000000000
GROUP1, 1, 0.066000000000000, 0.096000000000000
GROUP2, 13, 0.006000000000000, 0.015000000000000
GROUP2, 5, 0.005000000000000, 0.011000000000000
GROUP1, 2, 0.067000000000000, 0.096000000000000
GROUP1, 2, 0.067000000000000, 0.096000000000000
GROUP2, 70, 0.006000000000000, 0.051000000000000
GROUP2, 87, 0.006000000000000, 0.062000000000000
GROUP1, 5, 0.071000000000000, 0.098000000000000
GROUP2, 72, 0.006000000000000, 0.054000000000000
GROUP1, 5, 0.070000000000000, 0.098000000000000
GROUP1, 3, 0.067000000000000, 0.097000000000000
GROUP2, 41, 0.005000000000000, 0.034000000000000
GROUP1, 3, 0.069000000000000, 0.097000000000000
GROUP2, 87, 0.006000000000000, 0.063000000000000
GROUP1, 3, 0.068000000000000, 0.097000000000000
GROUP2, 95, 0.006000000000000, 0.068000000000000
GROUP1, 3, 0.068000000000000, 0.099000000000000
GROUP2, 94, 0.006000000000000, 0.067000000000000
GROUP2, 39, 0.006000000000000, 0.033000000000000
GROUP2, 62, 0.006000000000000, 0.048000000000000
GROUP2, 69, 0.005000000000000, 0.052000000000000
GROUP1, 2, 0.067000000000000, 0.096000000000000
GROUP2, 60, 0.006000000000000, 0.051000000000000
GROUP1, 2, 0.068000000000000, 0.118000000000000
GROUP2, 25, 0.007000000000000, 0.029000000000000
GROUP2, 49, 0.007000000000000, 0.049000000000000
GROUP1, 2, 0.070000000000000, 0.099000000000000
GROUP1, 4, 0.070000000000000, 0.110000000000000
GROUP1, 1, 0.087000000000000, 0.108000000000000
GROUP2, 86, 0.005000000000000, 0.062000000000000
GROUP1, 5, 0.070000000000000, 0.099000000000000
GROUP1, 2, 0.068000000000000, 0.100000000000000
GROUP1, 1, 0.066000000000000, 0.096000000000000
GROUP2, 46, 0.005000000000000, 0.037000000000000
GROUP2, 13, 0.005000000000000, 0.016000000000000
GROUP2, 50, 0.005000000000000, 0.040000000000000
GROUP1, 3, 0.070000000000000, 0.097000000000000
GROUP1, 1, 0.065000000000000, 0.097000000000000
GROUP2, 77, 0.005000000000000, 0.057000000000000
GROUP2, 79, 0.005000000000000, 0.058000000000000
GROUP2, 46, 0.005000000000000, 0.037000000000000
GROUP1, 4, 0.069000000000000, 0.098000000000000
GROUP1, 1, 0.066000000000000, 0.096000000000000
GROUP1, 2, 0.066000000000000, 0.097000000000000
GROUP2, 22, 0.006000000000000, 0.023000000000000
GROUP2, 21, 0.006000000000000, 0.021000000000000
GROUP2, 73, 0.006000000000000, 0.054000000000000
GROUP1, 1, 0.065000000000000, 0.096000000000000
GROUP1, 4, 0.068000000000000, 0.098000000000000
GROUP2, 7, 0.005000000000000, 0.012000000000000
GROUP1, 1, 0.065000000000000, 0.097000000000000
GROUP2, 22, 0.006000000000000, 0.021000000000000
GROUP2, 15, 0.008000000000000, 0.020000000000000
GROUP2, 20, 0.005000000000000, 0.021000000000000
GROUP2, 12, 0.006000000000000, 0.016000000000000
GROUP2, 67, 0.006000000000000, 0.051000000000000
GROUP1, 1, 0.067000000000000, 0.096000000000000
GROUP2, 88, 0.006000000000000, 0.065000000000000
GROUP1, 3, 0.071000000000000, 0.099000000000000
GROUP2, 79, 0.006000000000000, 0.059000000000000
GROUP2, 36, 0.006000000000000, 0.031000000000000
GROUP1, 1, 0.066000000000000, 0.098000000000000
GROUP1, 4, 0.073000000000000, 0.098000000000000
GROUP1, 1, 0.066000000000000, 0.096000000000000
GROUP2, 41, 0.005000000000000, 0.034000000000000
GROUP1, 3, 0.069000000000000, 0.097000000000000
GROUP2, 9, 0.006000000000000, 0.014000000000000
GROUP1, 3, 0.069000000000000, 0.097000000000000
GROUP1, 4, 0.068000000000000, 0.098000000000000
GROUP1, 3, 0.068000000000000, 0.098000000000000
GROUP1, 2, 0.067000000000000, 0.096000000000000
GROUP1, 2, 0.067000000000000, 0.096000000000000
GROUP2, 6, 0.005000000000000, 0.012000000000000
GROUP1, 5, 0.073000000000000, 0.100000000000000
GROUP1, 1, 0.067000000000000, 0.097000000000000
GROUP2, 22, 0.005000000000000, 0.022000000000000
GROUP1, 2, 0.067000000000000, 0.097000000000000
GROUP2, 64, 0.005000000000000, 0.049000000000000
GROUP1, 1, 0.066000000000000, 0.097000000000000
GROUP2, 22, 0.006000000000000, 0.023000000000000
GROUP1, 5, 0.072000000000000, 0.115000000000000
GROUP1, 2, 0.085000000000000, 0.129000000000000
GROUP2, 21, 0.007000000000000, 0.027000000000000
GROUP2, 59, 0.006000000000000, 0.052000000000000
GROUP1, 5, 0.075000000000000, 0.098000000000000
GROUP1, 3, 0.068000000000000, 0.098000000000000
GROUP2, 7, 0.006000000000000, 0.013000000000000
GROUP2, 27, 0.006000000000000, 0.026000000000000
GROUP2, 37, 0.006000000000000, 0.033000000000000
GROUP2, 40, 0.006000000000000, 0.041000000000000
GROUP1, 3, 0.091000000000000, 0.121000000000000
GROUP2, 49, 0.006000000000000, 0.040000000000000
GROUP1, 2, 0.068000000000000, 0.098000000000000
GROUP2, 10, 0.006000000000000, 0.014000000000000
GROUP1, 2, 0.068000000000000, 0.098000000000000
GROUP1, 1, 0.066000000000000, 0.097000000000000
GROUP1, 4, 0.069000000000000, 0.098000000000000
GROUP1, 4, 0.069000000000000, 0.098000000000000
GROUP1, 5, 0.071000000000000, 0.098000000000000
GROUP1, 3, 0.069000000000000, 0.098000000000000
GROUP2, 8, 0.006000000000000, 0.013000000000000
GROUP2, 83, 0.006000000000000, 0.061000000000000
GROUP2, 70, 0.006000000000000, 0.052000000000000
GROUP2, 18, 0.006000000000000, 0.019000000000000
GROUP1, 2, 0.068000000000000, 0.106000000000000
GROUP2, 39, 0.007000000000000, 0.039000000000000
GROUP2, 53, 0.008000000000000, 0.052000000000000
GROUP1, 3, 0.087000000000000, 0.119000000000000
GROUP1, 2, 0.068000000000000, 0.096000000000000
GROUP1, 1, 0.067000000000000, 0.096000000000000
GROUP1, 2, 0.068000000000000, 0.097000000000000
GROUP1, 4, 0.070000000000000, 0.099000000000000
GROUP1, 3, 0.071000000000000, 0.099000000000000
GROUP2, 2, 0.006000000000000, 0.009000000000000
GROUP2, 92, 0.006000000000000, 0.066000000000000
GROUP2, 92, 0.006000000000000, 0.067000000000000
GROUP2, 13, 0.006000000000000, 0.015000000000000
GROUP2, 11, 0.006000000000000, 0.015000000000000
GROUP1, 5, 0.071000000000000, 0.098000000000000
GROUP1, 1, 0.067000000000000, 0.098000000000000
GROUP1, 1, 0.067000000000000, 0.096000000000000
GROUP1, 4, 0.070000000000000, 0.097000000000000
GROUP2, 93, 0.006000000000000, 0.067000000000000
GROUP2, 26, 0.006000000000000, 0.024000000000000
GROUP1, 1, 0.066000000000000, 0.096000000000000
GROUP2, 81, 0.005000000000000, 0.060000000000000
GROUP2, 5, 0.006000000000000, 0.011000000000000
GROUP1, 2, 0.068000000000000, 0.097000000000000
GROUP1, 1, 0.067000000000000, 0.097000000000000
GROUP1, 3, 0.069000000000000, 0.097000000000000
GROUP2, 95, 0.006000000000000, 0.068000000000000
GROUP2, 64, 0.005000000000000, 0.049000000000000
GROUP1, 2, 0.068000000000000, 0.096000000000000
GROUP2, 59, 0.006000000000000, 0.046000000000000
GROUP1, 1, 0.067000000000000, 0.096000000000000
GROUP1, 4, 0.076000000000000, 0.097000000000000
GROUP2, 58, 0.006000000000000, 0.045000000000000
GROUP2, 44, 0.005000000000000, 0.037000000000000
GROUP1, 4, 0.069000000000000, 0.097000000000000
GROUP1, 1, 0.066000000000000, 0.096000000000000
GROUP2, 86, 0.006000000000000, 0.062000000000000
GROUP1, 4, 0.071000000000000, 0.097000000000000
GROUP2, 7, 0.006000000000000, 0.013000000000000
GROUP1, 3, 0.070000000000000, 0.096000000000000
GROUP1, 1, 0.068000000000000, 0.096000000000000
GROUP1, 1, 0.069000000000000, 0.096000000000000
GROUP2, 5, 0.010000000000000, 0.012000000000000
GROUP1, 3, 0.069000000000000, 0.097000000000000
GROUP1, 5, 0.071000000000000, 0.099000000000000
GROUP1, 2, 0.067000000000000, 0.096000000000000
GROUP1, 1, 0.066000000000000, 0.096000000000000
GROUP1, 5, 0.071000000000000, 0.097000000000000
GROUP1, 5, 0.071000000000000, 0.098000000000000
GROUP1, 1, 0.066000000000000, 0.095000000000000
GROUP2, 13, 0.006000000000000, 0.016000000000000
GROUP1, 2, 0.067000000000000, 0.098000000000000
GROUP2, 50, 0.005000000000000, 0.040000000000000
GROUP1, 2, 0.067000000000000, 0.096000000000000
GROUP2, 88, 0.005000000000000, 0.064000000000000
GROUP2, 71, 0.006000000000000, 0.053000000000000
GROUP2, 83, 0.007000000000000, 0.063000000000000
GROUP1, 1, 0.067000000000000, 0.097000000000000
GROUP1, 5, 0.071000000000000, 0.098000000000000
GROUP2, 53, 0.005000000000000, 0.042000000000000
GROUP1, 2, 0.068000000000000, 0.096000000000000
GROUP1, 3, 0.070000000000000, 0.097000000000000
GROUP2, 25, 0.005000000000000, 0.024000000000000
GROUP2, 51, 0.006000000000000, 0.040000000000000
GROUP2, 31, 0.005000000000000, 0.028000000000000
GROUP2, 25, 0.005000000000000, 0.025000000000000
GROUP2, 3, 0.006000000000000, 0.010000000000000
GROUP2, 29, 0.005000000000000, 0.027000000000000
GROUP1, 4, 0.073000000000000, 0.098000000000000
GROUP1, 1, 0.067000000000000, 0.096000000000000
GROUP1, 3, 0.069000000000000, 0.096000000000000
GROUP2, 18, 0.006000000000000, 0.019000000000000
GROUP1, 4, 0.069000000000000, 0.098000000000000
GROUP1, 1, 0.067000000000000, 0.096000000000000
GROUP1, 4, 0.069000000000000, 0.097000000000000
GROUP1, 3, 0.069000000000000, 0.101000000000000
GROUP1, 5, 0.071000000000000, 0.098000000000000
GROUP2, 34, 0.006000000000000, 0.030000000000000
GROUP1, 2, 0.068000000000000, 0.096000000000000
GROUP1, 5, 0.070000000000000, 0.097000000000000
GROUP1, 5, 0.071000000000000, 0.097000000000000
GROUP1, 1, 0.066000000000000, 0.096000000000000
GROUP1, 4, 0.069000000000000, 0.098000000000000
GROUP2, 62, 0.006000000000000, 0.047000000000000
GROUP1, 5, 0.071000000000000, 0.097000000000000
GROUP1, 5, 0.071000000000000, 0.099000000000000
GROUP1, 1, 0.067000000000000, 0.096000000000000
GROUP2, 4, 0.006000000000000, 0.010000000000000
GROUP1, 5, 0.069000000000000, 0.098000000000000
GROUP1, 5, 0.071000000000000, 0.097000000000000
GROUP1, 1, 0.067000000000000, 0.096000000000000
GROUP1, 2, 0.067000000000000, 0.096000000000000
GROUP2, 74, 0.006000000000000, 0.054000000000000
GROUP2, 68, 0.006000000000000, 0.051000000000000
GROUP2, 77, 0.006000000000000, 0.058000000000000
GROUP1, 2, 0.066000000000000, 0.097000000000000
GROUP2, 83, 0.006000000000000, 0.060000000000000
GROUP2, 14, 0.006000000000000, 0.017000000000000
GROUP2, 64, 0.005000000000000, 0.049000000000000
GROUP2, 68, 0.006000000000000, 0.051000000000000
GROUP2, 84, 0.006000000000000, 0.061000000000000
GROUP2, 50, 0.005000000000000, 0.040000000000000
GROUP1, 4, 0.071000000000000, 0.097000000000000
GROUP1, 5, 0.070000000000000, 0.097000000000000
GROUP1, 3, 0.070000000000000, 0.096000000000000
GROUP1, 5, 0.070000000000000, 0.097000000000000
GROUP2, 63, 0.006000000000000, 0.048000000000000
GROUP2, 29, 0.006000000000000, 0.027000000000000
GROUP2, 77, 0.005000000000000, 0.057000000000000
GROUP1, 1, 0.067000000000000, 0.096000000000000
GROUP2, 39, 0.006000000000000, 0.033000000000000
GROUP2, 29, 0.006000000000000, 0.027000000000000
GROUP1, 5, 0.071000000000000, 0.098000000000000
GROUP1, 3, 0.068000000000000, 0.097000000000000
GROUP1, 3, 0.068000000000000, 0.097000000000000
GROUP1, 1, 0.065000000000000, 0.096000000000000
GROUP1, 5, 0.069000000000000, 0.098000000000000
GROUP1, 2, 0.068000000000000, 0.099000000000000
GROUP1, 3, 0.072000000000000, 0.102000000000000
GROUP1, 5, 0.071000000000000, 0.098000000000000
GROUP1, 5, 0.070000000000000, 0.098000000000000
GROUP1, 5, 0.070000000000000, 0.098000000000000
GROUP2, 7, 0.005000000000000, 0.013000000000000
GROUP1, 3, 0.068000000000000, 0.096000000000000
GROUP1, 5, 0.070000000000000, 0.099000000000000
GROUP2, 51, 0.006000000000000, 0.040000000000000
GROUP2, 90, 0.006000000000000, 0.065000000000000
GROUP1, 4, 0.072000000000000, 0.097000000000000
GROUP2, 15, 0.005000000000000, 0.019000000000000
GROUP1, 5, 0.074000000000000, 0.098000000000000
GROUP1, 1, 0.080000000000000, 0.128000000000000
GROUP1, 1, 0.083000000000000, 0.120000000000000
GROUP2, 71, 0.006000000000000, 0.056000000000000
GROUP1, 4, 0.071000000000000, 0.098000000000000
GROUP1, 1, 0.067000000000000, 0.115000000000000
GROUP2, 75, 0.007000000000000, 0.079000000000000
GROUP2, 53, 0.006000000000000, 0.053000000000000
GROUP1, 2, 0.088000000000000, 0.105000000000000
GROUP2, 73, 0.005000000000000, 0.058000000000000
GROUP1, 3, 0.069000000000000, 0.097000000000000
GROUP1, 1, 0.071000000000000, 0.102000000000000
GROUP1, 2, 0.086000000000000, 0.121000000000000
GROUP1, 5, 0.080000000000000, 0.100000000000000
GROUP2, 41, 0.005000000000000, 0.033000000000000
GROUP2, 45, 0.005000000000000, 0.036000000000000
GROUP2, 94, 0.006000000000000, 0.067000000000000
GROUP1, 2, 0.067000000000000, 0.096000000000000
GROUP2, 10, 0.005000000000000, 0.014000000000000
GROUP2, 81, 0.006000000000000, 0.059000000000000
GROUP1, 2, 0.066000000000000, 0.101000000000000
GROUP2, 35, 0.005000000000000, 0.030000000000000
GROUP2, 55, 0.005000000000000, 0.043000000000000
GROUP2, 81, 0.006000000000000, 0.059000000000000
GROUP2, 48, 0.006000000000000, 0.038000000000000
GROUP2, 65, 0.006000000000000, 0.048000000000000
GROUP1, 4, 0.070000000000000, 0.097000000000000
GROUP2, 55, 0.005000000000000, 0.042000000000000
GROUP1, 2, 0.071000000000000, 0.097000000000000
GROUP2, 55, 0.006000000000000, 0.042000000000000
GROUP1, 5, 0.071000000000000, 0.098000000000000
GROUP2, 94, 0.008000000000000, 0.069000000000000
GROUP1, 1, 0.067000000000000, 0.096000000000000
GROUP2, 43, 0.006000000000000, 0.035000000000000
GROUP2, 39, 0.005000000000000, 0.033000000000000
GROUP2, 95, 0.005000000000000, 0.069000000000000
GROUP1, 2, 0.067000000000000, 0.097000000000000
GROUP2, 10, 0.006000000000000, 0.014000000000000
GROUP1, 3, 0.069000000000000, 0.096000000000000
GROUP1, 3, 0.069000000000000, 0.096000000000000
GROUP1, 1, 0.067000000000000, 0.096000000000000
GROUP1, 1, 0.068000000000000, 0.096000000000000
GROUP1, 3, 0.069000000000000, 0.097000000000000
GROUP1, 2, 0.068000000000000, 0.101000000000000
GROUP1, 5, 0.073000000000000, 0.097000000000000
GROUP2, 75, 0.006000000000000, 0.055000000000000
GROUP1, 3, 0.072000000000000, 0.099000000000000
GROUP2, 84, 0.006000000000000, 0.064000000000000
GROUP1, 3, 0.070000000000000, 0.097000000000000
GROUP1, 5, 0.072000000000000, 0.097000000000000
GROUP1, 4, 0.072000000000000, 0.099000000000000
GROUP1, 5, 0.083000000000000, 0.125000000000000
GROUP2, 39, 0.006000000000000, 0.038000000000000
GROUP1, 2, 0.067000000000000, 0.096000000000000
GROUP2, 31, 0.006000000000000, 0.028000000000000
GROUP2, 59, 0.006000000000000, 0.046000000000000
GROUP1, 5, 0.079000000000000, 0.126000000000000
GROUP2, 64, 0.006000000000000, 0.051000000000000
GROUP1, 4, 0.071000000000000, 0.097000000000000
GROUP1, 1, 0.066000000000000, 0.097000000000000
GROUP1, 3, 0.072000000000000, 0.099000000000000
GROUP2, 1, 0.006000000000000, 0.009000000000000
GROUP2, 34, 0.006000000000000, 0.030000000000000
GROUP2, 1, 0.005000000000000, 0.009000000000000
GROUP1, 5, 0.070000000000000, 0.098000000000000
GROUP1, 4, 0.070000000000000, 0.098000000000000
GROUP2, 75, 0.006000000000000, 0.057000000000000
GROUP1, 4, 0.069000000000000, 0.097000000000000
GROUP2, 79, 0.005000000000000, 0.060000000000000
GROUP2, 78, 0.006000000000000, 0.060000000000000
GROUP2, 35, 0.006000000000000, 0.032000000000000
GROUP2, 52, 0.006000000000000, 0.056000000000000
GROUP1, 1, 0.066000000000000, 0.116000000000000
GROUP1, 5, 0.095000000000000, 0.129000000000000
GROUP2, 15, 0.006000000000000, 0.018000000000000
GROUP1, 5, 0.070000000000000, 0.098000000000000
GROUP1, 3, 0.069000000000000, 0.097000000000000
GROUP2, 84, 0.006000000000000, 0.061000000000000
GROUP1, 5, 0.083000000000000, 0.123000000000000
GROUP2, 43, 0.006000000000000, 0.039000000000000
GROUP1, 2, 0.068000000000000, 0.097000000000000
GROUP1, 5, 0.070000000000000, 0.101000000000000
GROUP1, 1, 0.067000000000000, 0.096000000000000
GROUP1, 3, 0.070000000000000, 0.097000000000000
GROUP1, 4, 0.071000000000000, 0.098000000000000
GROUP2, 78, 0.006000000000000, 0.057000000000000
GROUP2, 48, 0.006000000000000, 0.039000000000000
GROUP1, 1, 0.068000000000000, 0.095000000000000
GROUP2, 12, 0.006000000000000, 0.016000000000000
GROUP1, 5, 0.071000000000000, 0.099000000000000
GROUP1, 2, 0.068000000000000, 0.096000000000000
GROUP2, 56, 0.006000000000000, 0.043000000000000
GROUP2, 18, 0.006000000000000, 0.020000000000000
GROUP2, 25, 0.006000000000000, 0.025000000000000
GROUP2, 76, 0.005000000000000, 0.056000000000000
GROUP1, 3, 0.070000000000000, 0.098000000000000
GROUP1, 1, 0.066000000000000, 0.096000000000000
GROUP2, 10, 0.005000000000000, 0.015000000000000
GROUP2, 54, 0.006000000000000, 0.041000000000000
GROUP2, 16, 0.006000000000000, 0.018000000000000
GROUP2, 89, 0.006000000000000, 0.064000000000000
GROUP2, 81, 0.006000000000000, 0.061000000000000
GROUP2, 55, 0.005000000000000, 0.044000000000000
GROUP1, 3, 0.071000000000000, 0.097000000000000
GROUP2, 36, 0.005000000000000, 0.031000000000000
GROUP2, 29, 0.006000000000000, 0.026000000000000
GROUP2, 68, 0.006000000000000, 0.050000000000000
GROUP2, 89, 0.006000000000000, 0.064000000000000
GROUP2, 72, 0.005000000000000, 0.054000000000000
GROUP1, 3, 0.068000000000000, 0.098000000000000
GROUP1, 3, 0.068000000000000, 0.097000000000000
GROUP2, 46, 0.006000000000000, 0.037000000000000
GROUP1, 3, 0.083000000000000, 0.124000000000000
GROUP1, 3, 0.085000000000000, 0.098000000000000
GROUP1, 5, 0.071000000000000, 0.110000000000000
GROUP2, 86, 0.006000000000000, 0.078000000000000
GROUP2, 1, 0.006000000000000, 0.010000000000000
GROUP1, 2, 0.089000000000000, 0.118000000000000
GROUP1, 1, 0.066000000000000, 0.096000000000000
GROUP2, 74, 0.006000000000000, 0.054000000000000
GROUP2, 75, 0.005000000000000, 0.055000000000000
GROUP2, 70, 0.005000000000000, 0.052000000000000
GROUP1, 3, 0.077000000000000, 0.122000000000000
GROUP1, 4, 0.086000000000000, 0.099000000000000
GROUP2, 94, 0.005000000000000, 0.069000000000000
